divider_tb.vcd
$date
	Sun Apr 19 22:35:58 2026
$end
$version
	Icarus Verilog
$end
$timescale
	1ps
$end
$scope module divider_tb $end
$var wire 16 ! o [15:0] $end
$var wire 1 " done $end
$var reg 8 # a [7:0] $end
$var reg 8 $ b [7:0] $end
$var reg 1 % clk $end
$var reg 1 & reset_n $end
$var reg 1 ' start $end
$scope module uut $end
$var wire 8 ( a [7:0] $end
$var wire 8 ) b [7:0] $end
$var wire 1 % clk $end
$var wire 1 & reset_n $end
$var wire 1 ' start $end
$var wire 8 * sub_result [7:0] $end
$var wire 9 + sub_out [8:0] $end
$var wire 1 , sub_cout $end
$var wire 16 - shifted [15:0] $end
$var wire 16 . reg_data_next [15:0] $end
$var wire 16 / reg_data [15:0] $end
$var wire 1 0 qbit $end
$var wire 16 1 o [15:0] $end
$var wire 16 2 init_val [15:0] $end
$var wire 8 3 final_result [7:0] $end
$var wire 1 4 final_cout $end
$var wire 9 5 final_corr [8:0] $end
$var wire 8 6 final_R [7:0] $end
$var wire 8 7 final_Q [7:0] $end
$var wire 1 " done $end
$var wire 4 8 count_next [3:0] $end
$var wire 4 9 count [3:0] $end
$var wire 8 : corrected_R [7:0] $end
$var wire 8 ; add_result [7:0] $end
$var wire 9 < add_out [8:0] $end
$var wire 1 = add_cout $end
$var wire 8 > R_temp [7:0] $end
$var wire 8 ? R_sh [7:0] $end
$var wire 8 @ Q_sh [7:0] $end
$var wire 8 A Q_new [7:0] $end
$scope module add_adder $end
$var wire 1 B c0 $end
$var wire 8 C x [7:0] $end
$var wire 8 D y [7:0] $end
$var wire 8 E z [7:0] $end
$var wire 1 = c8 $end
$var wire 1 F c4 $end
$scope module cla0 $end
$var wire 1 B c0 $end
$var wire 1 F c4 $end
$var wire 4 G x [3:0] $end
$var wire 4 H y [3:0] $end
$var wire 4 I z [3:0] $end
$var wire 1 J c3 $end
$var wire 1 K c2 $end
$var wire 1 L c1 $end
$var wire 1 M P33 $end
$var wire 1 N P23 $end
$var wire 1 O P22 $end
$var wire 1 P P11 $end
$var wire 1 Q P03 $end
$var wire 1 R P01 $end
$var wire 1 S P00 $end
$var wire 1 T G33 $end
$var wire 1 U G23 $end
$var wire 1 V G22 $end
$var wire 1 W G11 $end
$var wire 1 X G03 $end
$var wire 1 Y G01 $end
$var wire 1 Z G00 $end
$scope module ac0 $end
$var wire 1 Z Gij $end
$var wire 1 S Pii $end
$var wire 1 B ci $end
$var wire 1 [ xi $end
$var wire 1 \ yi $end
$var wire 1 ] zi $end
$upscope $end
$scope module ac1 $end
$var wire 1 W Gij $end
$var wire 1 P Pii $end
$var wire 1 ^ xi $end
$var wire 1 _ yi $end
$var wire 1 ` zi $end
$var wire 1 L ci $end
$upscope $end
$scope module ac2 $end
$var wire 1 V Gij $end
$var wire 1 O Pii $end
$var wire 1 a xi $end
$var wire 1 b yi $end
$var wire 1 c zi $end
$var wire 1 K ci $end
$upscope $end
$scope module ac3 $end
$var wire 1 T Gij $end
$var wire 1 M Pii $end
$var wire 1 d xi $end
$var wire 1 e yi $end
$var wire 1 f zi $end
$var wire 1 J ci $end
$upscope $end
$scope module bc0 $end
$var wire 1 Z Gij $end
$var wire 1 Y Gik $end
$var wire 1 W Gjk $end
$var wire 1 S Pij $end
$var wire 1 R Pik $end
$var wire 1 P Pjk $end
$var wire 1 B ci $end
$var wire 1 L cj $end
$upscope $end
$scope module bc1 $end
$var wire 1 V Gij $end
$var wire 1 U Gik $end
$var wire 1 T Gjk $end
$var wire 1 O Pij $end
$var wire 1 N Pik $end
$var wire 1 M Pjk $end
$var wire 1 J cj $end
$var wire 1 K ci $end
$upscope $end
$scope module bc2 $end
$var wire 1 Y Gij $end
$var wire 1 X Gik $end
$var wire 1 U Gjk $end
$var wire 1 R Pij $end
$var wire 1 Q Pik $end
$var wire 1 N Pjk $end
$var wire 1 B ci $end
$var wire 1 K cj $end
$upscope $end
$upscope $end
$scope module cla1 $end
$var wire 1 F c0 $end
$var wire 1 = c4 $end
$var wire 4 g x [3:0] $end
$var wire 4 h y [3:0] $end
$var wire 4 i z [3:0] $end
$var wire 1 j c3 $end
$var wire 1 k c2 $end
$var wire 1 l c1 $end
$var wire 1 m P33 $end
$var wire 1 n P23 $end
$var wire 1 o P22 $end
$var wire 1 p P11 $end
$var wire 1 q P03 $end
$var wire 1 r P01 $end
$var wire 1 s P00 $end
$var wire 1 t G33 $end
$var wire 1 u G23 $end
$var wire 1 v G22 $end
$var wire 1 w G11 $end
$var wire 1 x G03 $end
$var wire 1 y G01 $end
$var wire 1 z G00 $end
$scope module ac0 $end
$var wire 1 z Gij $end
$var wire 1 s Pii $end
$var wire 1 F ci $end
$var wire 1 { xi $end
$var wire 1 | yi $end
$var wire 1 } zi $end
$upscope $end
$scope module ac1 $end
$var wire 1 w Gij $end
$var wire 1 p Pii $end
$var wire 1 ~ xi $end
$var wire 1 !" yi $end
$var wire 1 "" zi $end
$var wire 1 l ci $end
$upscope $end
$scope module ac2 $end
$var wire 1 v Gij $end
$var wire 1 o Pii $end
$var wire 1 #" xi $end
$var wire 1 $" yi $end
$var wire 1 %" zi $end
$var wire 1 k ci $end
$upscope $end
$scope module ac3 $end
$var wire 1 t Gij $end
$var wire 1 m Pii $end
$var wire 1 &" xi $end
$var wire 1 '" yi $end
$var wire 1 (" zi $end
$var wire 1 j ci $end
$upscope $end
$scope module bc0 $end
$var wire 1 z Gij $end
$var wire 1 y Gik $end
$var wire 1 w Gjk $end
$var wire 1 s Pij $end
$var wire 1 r Pik $end
$var wire 1 p Pjk $end
$var wire 1 F ci $end
$var wire 1 l cj $end
$upscope $end
$scope module bc1 $end
$var wire 1 v Gij $end
$var wire 1 u Gik $end
$var wire 1 t Gjk $end
$var wire 1 o Pij $end
$var wire 1 n Pik $end
$var wire 1 m Pjk $end
$var wire 1 j cj $end
$var wire 1 k ci $end
$upscope $end
$scope module bc2 $end
$var wire 1 y Gij $end
$var wire 1 x Gik $end
$var wire 1 u Gjk $end
$var wire 1 r Pij $end
$var wire 1 q Pik $end
$var wire 1 n Pjk $end
$var wire 1 F ci $end
$var wire 1 k cj $end
$upscope $end
$upscope $end
$upscope $end
$scope module count_dff $end
$var wire 1 % clk $end
$var wire 4 )" d [3:0] $end
$var wire 1 & reset_n $end
$var wire 4 *" q [3:0] $end
$var parameter 32 +" WIDTH $end
$var reg 4 ," q_reg [3:0] $end
$upscope $end
$scope module final_correction $end
$var wire 1 -" c0 $end
$var wire 8 ." x [7:0] $end
$var wire 8 /" y [7:0] $end
$var wire 8 0" z [7:0] $end
$var wire 1 4 c8 $end
$var wire 1 1" c4 $end
$scope module cla0 $end
$var wire 1 -" c0 $end
$var wire 1 1" c4 $end
$var wire 4 2" x [3:0] $end
$var wire 4 3" y [3:0] $end
$var wire 4 4" z [3:0] $end
$var wire 1 5" c3 $end
$var wire 1 6" c2 $end
$var wire 1 7" c1 $end
$var wire 1 8" P33 $end
$var wire 1 9" P23 $end
$var wire 1 :" P22 $end
$var wire 1 ;" P11 $end
$var wire 1 <" P03 $end
$var wire 1 =" P01 $end
$var wire 1 >" P00 $end
$var wire 1 ?" G33 $end
$var wire 1 @" G23 $end
$var wire 1 A" G22 $end
$var wire 1 B" G11 $end
$var wire 1 C" G03 $end
$var wire 1 D" G01 $end
$var wire 1 E" G00 $end
$scope module ac0 $end
$var wire 1 E" Gij $end
$var wire 1 >" Pii $end
$var wire 1 -" ci $end
$var wire 1 F" xi $end
$var wire 1 G" yi $end
$var wire 1 H" zi $end
$upscope $end
$scope module ac1 $end
$var wire 1 B" Gij $end
$var wire 1 ;" Pii $end
$var wire 1 I" xi $end
$var wire 1 J" yi $end
$var wire 1 K" zi $end
$var wire 1 7" ci $end
$upscope $end
$scope module ac2 $end
$var wire 1 A" Gij $end
$var wire 1 :" Pii $end
$var wire 1 L" xi $end
$var wire 1 M" yi $end
$var wire 1 N" zi $end
$var wire 1 6" ci $end
$upscope $end
$scope module ac3 $end
$var wire 1 ?" Gij $end
$var wire 1 8" Pii $end
$var wire 1 O" xi $end
$var wire 1 P" yi $end
$var wire 1 Q" zi $end
$var wire 1 5" ci $end
$upscope $end
$scope module bc0 $end
$var wire 1 E" Gij $end
$var wire 1 D" Gik $end
$var wire 1 B" Gjk $end
$var wire 1 >" Pij $end
$var wire 1 =" Pik $end
$var wire 1 ;" Pjk $end
$var wire 1 -" ci $end
$var wire 1 7" cj $end
$upscope $end
$scope module bc1 $end
$var wire 1 A" Gij $end
$var wire 1 @" Gik $end
$var wire 1 ?" Gjk $end
$var wire 1 :" Pij $end
$var wire 1 9" Pik $end
$var wire 1 8" Pjk $end
$var wire 1 5" cj $end
$var wire 1 6" ci $end
$upscope $end
$scope module bc2 $end
$var wire 1 D" Gij $end
$var wire 1 C" Gik $end
$var wire 1 @" Gjk $end
$var wire 1 =" Pij $end
$var wire 1 <" Pik $end
$var wire 1 9" Pjk $end
$var wire 1 -" ci $end
$var wire 1 6" cj $end
$upscope $end
$upscope $end
$scope module cla1 $end
$var wire 1 1" c0 $end
$var wire 1 4 c4 $end
$var wire 4 R" x [3:0] $end
$var wire 4 S" y [3:0] $end
$var wire 4 T" z [3:0] $end
$var wire 1 U" c3 $end
$var wire 1 V" c2 $end
$var wire 1 W" c1 $end
$var wire 1 X" P33 $end
$var wire 1 Y" P23 $end
$var wire 1 Z" P22 $end
$var wire 1 [" P11 $end
$var wire 1 \" P03 $end
$var wire 1 ]" P01 $end
$var wire 1 ^" P00 $end
$var wire 1 _" G33 $end
$var wire 1 `" G23 $end
$var wire 1 a" G22 $end
$var wire 1 b" G11 $end
$var wire 1 c" G03 $end
$var wire 1 d" G01 $end
$var wire 1 e" G00 $end
$scope module ac0 $end
$var wire 1 e" Gij $end
$var wire 1 ^" Pii $end
$var wire 1 1" ci $end
$var wire 1 f" xi $end
$var wire 1 g" yi $end
$var wire 1 h" zi $end
$upscope $end
$scope module ac1 $end
$var wire 1 b" Gij $end
$var wire 1 [" Pii $end
$var wire 1 i" xi $end
$var wire 1 j" yi $end
$var wire 1 k" zi $end
$var wire 1 W" ci $end
$upscope $end
$scope module ac2 $end
$var wire 1 a" Gij $end
$var wire 1 Z" Pii $end
$var wire 1 l" xi $end
$var wire 1 m" yi $end
$var wire 1 n" zi $end
$var wire 1 V" ci $end
$upscope $end
$scope module ac3 $end
$var wire 1 _" Gij $end
$var wire 1 X" Pii $end
$var wire 1 o" xi $end
$var wire 1 p" yi $end
$var wire 1 q" zi $end
$var wire 1 U" ci $end
$upscope $end
$scope module bc0 $end
$var wire 1 e" Gij $end
$var wire 1 d" Gik $end
$var wire 1 b" Gjk $end
$var wire 1 ^" Pij $end
$var wire 1 ]" Pik $end
$var wire 1 [" Pjk $end
$var wire 1 1" ci $end
$var wire 1 W" cj $end
$upscope $end
$scope module bc1 $end
$var wire 1 a" Gij $end
$var wire 1 `" Gik $end
$var wire 1 _" Gjk $end
$var wire 1 Z" Pij $end
$var wire 1 Y" Pik $end
$var wire 1 X" Pjk $end
$var wire 1 U" cj $end
$var wire 1 V" ci $end
$upscope $end
$scope module bc2 $end
$var wire 1 d" Gij $end
$var wire 1 c" Gik $end
$var wire 1 `" Gjk $end
$var wire 1 ]" Pij $end
$var wire 1 \" Pik $end
$var wire 1 Y" Pjk $end
$var wire 1 1" ci $end
$var wire 1 V" cj $end
$upscope $end
$upscope $end
$upscope $end
$scope module reg_data_dff $end
$var wire 1 % clk $end
$var wire 16 r" d [15:0] $end
$var wire 1 & reset_n $end
$var wire 16 s" q [15:0] $end
$var parameter 32 t" WIDTH $end
$var reg 16 u" q_reg [15:0] $end
$upscope $end
$scope module shifter $end
$var wire 16 v" in [15:0] $end
$var wire 1 w" serial_in $end
$var wire 16 x" out [15:0] $end
$var parameter 32 y" WIDTH $end
$scope begin bit_shift[1] $end
$var parameter 2 z" i $end
$upscope $end
$scope begin bit_shift[2] $end
$var parameter 3 {" i $end
$upscope $end
$scope begin bit_shift[3] $end
$var parameter 3 |" i $end
$upscope $end
$scope begin bit_shift[4] $end
$var parameter 4 }" i $end
$upscope $end
$scope begin bit_shift[5] $end
$var parameter 4 ~" i $end
$upscope $end
$scope begin bit_shift[6] $end
$var parameter 4 !# i $end
$upscope $end
$scope begin bit_shift[7] $end
$var parameter 4 "# i $end
$upscope $end
$scope begin bit_shift[8] $end
$var parameter 5 ## i $end
$upscope $end
$scope begin bit_shift[9] $end
$var parameter 5 $# i $end
$upscope $end
$scope begin bit_shift[10] $end
$var parameter 5 %# i $end
$upscope $end
$scope begin bit_shift[11] $end
$var parameter 5 &# i $end
$upscope $end
$scope begin bit_shift[12] $end
$var parameter 5 '# i $end
$upscope $end
$scope begin bit_shift[13] $end
$var parameter 5 (# i $end
$upscope $end
$scope begin bit_shift[14] $end
$var parameter 5 )# i $end
$upscope $end
$scope begin bit_shift[15] $end
$var parameter 5 *# i $end
$upscope $end
$upscope $end
$scope module sub_adder $end
$var wire 1 +# c0 $end
$var wire 8 ,# x [7:0] $end
$var wire 8 -# y [7:0] $end
$var wire 8 .# z [7:0] $end
$var wire 1 , c8 $end
$var wire 1 /# c4 $end
$scope module cla0 $end
$var wire 1 +# c0 $end
$var wire 1 /# c4 $end
$var wire 4 0# x [3:0] $end
$var wire 4 1# y [3:0] $end
$var wire 4 2# z [3:0] $end
$var wire 1 3# c3 $end
$var wire 1 4# c2 $end
$var wire 1 5# c1 $end
$var wire 1 6# P33 $end
$var wire 1 7# P23 $end
$var wire 1 8# P22 $end
$var wire 1 9# P11 $end
$var wire 1 :# P03 $end
$var wire 1 ;# P01 $end
$var wire 1 <# P00 $end
$var wire 1 =# G33 $end
$var wire 1 ># G23 $end
$var wire 1 ?# G22 $end
$var wire 1 @# G11 $end
$var wire 1 A# G03 $end
$var wire 1 B# G01 $end
$var wire 1 C# G00 $end
$scope module ac0 $end
$var wire 1 C# Gij $end
$var wire 1 <# Pii $end
$var wire 1 +# ci $end
$var wire 1 D# xi $end
$var wire 1 E# yi $end
$var wire 1 F# zi $end
$upscope $end
$scope module ac1 $end
$var wire 1 @# Gij $end
$var wire 1 9# Pii $end
$var wire 1 G# xi $end
$var wire 1 H# yi $end
$var wire 1 I# zi $end
$var wire 1 5# ci $end
$upscope $end
$scope module ac2 $end
$var wire 1 ?# Gij $end
$var wire 1 8# Pii $end
$var wire 1 J# xi $end
$var wire 1 K# yi $end
$var wire 1 L# zi $end
$var wire 1 4# ci $end
$upscope $end
$scope module ac3 $end
$var wire 1 =# Gij $end
$var wire 1 6# Pii $end
$var wire 1 M# xi $end
$var wire 1 N# yi $end
$var wire 1 O# zi $end
$var wire 1 3# ci $end
$upscope $end
$scope module bc0 $end
$var wire 1 C# Gij $end
$var wire 1 B# Gik $end
$var wire 1 @# Gjk $end
$var wire 1 <# Pij $end
$var wire 1 ;# Pik $end
$var wire 1 9# Pjk $end
$var wire 1 +# ci $end
$var wire 1 5# cj $end
$upscope $end
$scope module bc1 $end
$var wire 1 ?# Gij $end
$var wire 1 ># Gik $end
$var wire 1 =# Gjk $end
$var wire 1 8# Pij $end
$var wire 1 7# Pik $end
$var wire 1 6# Pjk $end
$var wire 1 3# cj $end
$var wire 1 4# ci $end
$upscope $end
$scope module bc2 $end
$var wire 1 B# Gij $end
$var wire 1 A# Gik $end
$var wire 1 ># Gjk $end
$var wire 1 ;# Pij $end
$var wire 1 :# Pik $end
$var wire 1 7# Pjk $end
$var wire 1 +# ci $end
$var wire 1 4# cj $end
$upscope $end
$upscope $end
$scope module cla1 $end
$var wire 1 /# c0 $end
$var wire 1 , c4 $end
$var wire 4 P# x [3:0] $end
$var wire 4 Q# y [3:0] $end
$var wire 4 R# z [3:0] $end
$var wire 1 S# c3 $end
$var wire 1 T# c2 $end
$var wire 1 U# c1 $end
$var wire 1 V# P33 $end
$var wire 1 W# P23 $end
$var wire 1 X# P22 $end
$var wire 1 Y# P11 $end
$var wire 1 Z# P03 $end
$var wire 1 [# P01 $end
$var wire 1 \# P00 $end
$var wire 1 ]# G33 $end
$var wire 1 ^# G23 $end
$var wire 1 _# G22 $end
$var wire 1 `# G11 $end
$var wire 1 a# G03 $end
$var wire 1 b# G01 $end
$var wire 1 c# G00 $end
$scope module ac0 $end
$var wire 1 c# Gij $end
$var wire 1 \# Pii $end
$var wire 1 /# ci $end
$var wire 1 d# xi $end
$var wire 1 e# yi $end
$var wire 1 f# zi $end
$upscope $end
$scope module ac1 $end
$var wire 1 `# Gij $end
$var wire 1 Y# Pii $end
$var wire 1 g# xi $end
$var wire 1 h# yi $end
$var wire 1 i# zi $end
$var wire 1 U# ci $end
$upscope $end
$scope module ac2 $end
$var wire 1 _# Gij $end
$var wire 1 X# Pii $end
$var wire 1 j# xi $end
$var wire 1 k# yi $end
$var wire 1 l# zi $end
$var wire 1 T# ci $end
$upscope $end
$scope module ac3 $end
$var wire 1 ]# Gij $end
$var wire 1 V# Pii $end
$var wire 1 m# xi $end
$var wire 1 n# yi $end
$var wire 1 o# zi $end
$var wire 1 S# ci $end
$upscope $end
$scope module bc0 $end
$var wire 1 c# Gij $end
$var wire 1 b# Gik $end
$var wire 1 `# Gjk $end
$var wire 1 \# Pij $end
$var wire 1 [# Pik $end
$var wire 1 Y# Pjk $end
$var wire 1 /# ci $end
$var wire 1 U# cj $end
$upscope $end
$scope module bc1 $end
$var wire 1 _# Gij $end
$var wire 1 ^# Gik $end
$var wire 1 ]# Gjk $end
$var wire 1 X# Pij $end
$var wire 1 W# Pik $end
$var wire 1 V# Pjk $end
$var wire 1 S# cj $end
$var wire 1 T# ci $end
$upscope $end
$scope module bc2 $end
$var wire 1 b# Gij $end
$var wire 1 a# Gik $end
$var wire 1 ^# Gjk $end
$var wire 1 [# Pij $end
$var wire 1 Z# Pik $end
$var wire 1 W# Pjk $end
$var wire 1 /# ci $end
$var wire 1 T# cj $end
$upscope $end
$upscope $end
$upscope $end
$upscope $end
$scope task test_div $end
$var reg 8 p# dividend [7:0] $end
$var reg 8 q# divisor [7:0] $end
$upscope $end
$upscope $end
$enddefinitions $end
$comment Show the parameter values. $end
$dumpall
b1111 *#
b1110 )#
b1101 (#
b1100 '#
b1011 &#
b1010 %#
b1001 $#
b1000 ##
b111 "#
b110 !#
b101 ~"
b100 }"
b11 |"
b10 {"
b1 z"
b10000 y"
b10000 t"
b100 +"
$end
#0
$dumpvars
b11 q#
b1111 p#
xo#
xn#
0m#
xl#
xk#
0j#
xi#
xh#
0g#
xf#
xe#
0d#
0c#
0b#
0a#
0`#
0_#
0^#
0]#
x\#
x[#
xZ#
xY#
xX#
xW#
xV#
xU#
xT#
xS#
bx R#
bx Q#
b0 P#
xO#
xN#
0M#
xL#
xK#
0J#
xI#
xH#
0G#
xF#
xE#
0D#
0C#
0B#
0A#
0@#
0?#
0>#
0=#
x<#
x;#
x:#
x9#
x8#
x7#
x6#
x5#
x4#
x3#
bx 2#
bx 1#
b0 0#
x/#
bx .#
bx -#
b0 ,#
1+#
b0 x"
0w"
b0 v"
b0 u"
b0 s"
bx0000000x r"
xq"
xp"
0o"
xn"
xm"
0l"
xk"
xj"
0i"
xh"
xg"
0f"
0e"
0d"
0c"
0b"
0a"
0`"
0_"
x^"
x]"
x\"
x["
xZ"
xY"
xX"
0W"
0V"
0U"
bx T"
bx S"
b0 R"
xQ"
xP"
0O"
xN"
xM"
0L"
xK"
xJ"
0I"
xH"
xG"
0F"
0E"
0D"
0C"
0B"
0A"
0@"
0?"
x>"
x="
x<"
x;"
x:"
x9"
x8"
07"
06"
05"
bx 4"
bx 3"
b0 2"
01"
bx 0"
bx /"
b0 ."
0-"
b0 ,"
b0 *"
b1111 )"
x("
x'"
0&"
x%"
x$"
0#"
x""
x!"
0~
x}
x|
0{
0z
0y
0x
0w
0v
0u
0t
xs
xr
xq
xp
xo
xn
xm
0l
0k
0j
bx i
bx h
b0 g
xf
xe
0d
xc
xb
0a
x`
x_
0^
x]
x\
0[
0Z
0Y
0X
0W
0V
0U
0T
xS
xR
xQ
xP
xO
xN
xM
0L
0K
0J
bx I
bx H
b0 G
0F
bx E
bx D
b0 C
0B
b0x A
b0 @
b0 ?
bx >
0=
b0xxxxxxxx <
bx ;
b0 :
b0 9
b1111 8
b0 7
b0 6
b0xxxxxxxx 5
04
bx 3
b0xxxxxxxx 2
b0 1
x0
b0 /
bx0000000x .
b0 -
x,
bx +
bx *
bx )
bx (
0'
0&
0%
bx $
bx #
1"
b0 !
$end
#5000
1%
#10000
0%
1&
#15000
b11110 @
b11110 -
b11110 x"
b111100000000 !
b111100000000 1
b1111 7
b1111 /
b1111 s"
b1111 u"
b1111 v"
0"
b1000 9
b1000 *"
b1000 ,"
b11110 A
00
1o#
0S#
1i#
1l#
1O#
0,
0U#
0T#
03#
b1111 R#
1f#
1L#
0/#
0I#
b1111110100011110 .
b11111101 >
04#
05#
0:#
1Z#
b11111101 +
b11111101 *
b11111101 .#
b1101 2#
1F#
0;#
17#
1[#
1W#
0Q
0q
0<"
0\"
0<#
09#
18#
16#
1\#
1Y#
1X#
1V#
1]
1R
1`
0c
0N
b11 I
0f
0}
0r
0""
0%"
0n
b11 <
b11 ;
b11 E
b0 i
0("
1H"
1="
1K"
0N"
09"
b11 4"
0Q"
0h"
0]"
0k"
0n"
0Y"
b11 5
b11 3
b11 0"
b0 T"
0q"
0E#
0H#
1K#
1N#
1e#
1h#
1k#
1n#
1S
1P
0O
0M
0s
0p
0o
0m
1>"
1;"
0:"
08"
0^"
0["
0Z"
0X"
b1100 1#
b1111 Q#
1\
1_
0b
0e
0|
0!"
0$"
0'"
1G"
1J"
0M"
0P"
0g"
0j"
0m"
0p"
b1000 8
b1000 )"
b1111 r"
b11111100 -#
b11 H
b0 h
b11 3"
b0 S"
1%
1'
b11 $
b11 )
b11 D
b11 /"
b1111 2
b1111 #
b1111 (
#20000
0%
#25000
1U"
14
1W"
1V"
11"
15"
00
1c
1/#
1,
1C"
1K
1q
1A#
1T#
1a#
16"
1Y
0`
b1101 I
1f
1}
1r
1""
1%"
1n
b11111101 <
b11111101 ;
b11111101 E
b1111 i
1("
1I#
1>#
b111 2#
0O#
1U#
1f#
1b#
1i#
1S#
1l#
1^#
b111110111 +
b11110111 *
b11110111 .#
b1111 R#
1o#
1D"
0K"
1<"
1\"
b11111101 >
1W
1M
1s
1p
1o
1m
19#
1=#
1c#
1`#
1_#
1]#
17"
0H"
0N"
19"
b0 4"
0Q"
0h"
1]"
0k"
0n"
1Y"
b100000000 5
b0 3
b0 0"
b0 T"
0q"
1^
1d
1{
1~
1#"
1&"
1G#
1M#
1d#
1g#
1j#
1m#
1E"
1:"
18"
1^"
1["
1Z"
1X"
b1111110100111100 .
b111100 A
b1010 G
b1111 g
b1010 0#
b1111 P#
1F"
1L"
1O"
1f"
1i"
1l"
1o"
b111100 @
b11111010 ?
b11111010 C
b11111010 ,#
b0 :
b1101 2"
b1111 R"
b1111101000111100 -
b1111101000111100 x"
b1111000000000 !
b1111000000000 1
b11110 7
b11111101 6
b11111101 ."
b111 9
b111 *"
b111 ,"
b1111110100011110 /
b1111110100011110 s"
b1111110100011110 u"
b1111110100011110 v"
b110 8
b110 )"
b1111110100111100 r"
1%
0'
#30000
0%
#35000
b1111110101111000 r"
b1111110101111000 .
b1111000 A
b1111000 @
b1111101001111000 -
b1111101001111000 x"
b11110000000000 !
b11110000000000 1
b111100 7
b101 8
b101 )"
b1111110100111100 /
b1111110100111100 s"
b1111110100111100 u"
b1111110100111100 v"
b110 9
b110 *"
b110 ,"
1%
#40000
0%
#45000
b1111110111110000 r"
b1111110111110000 .
b11110000 A
b11110000 @
b100 8
b100 )"
b1111101011110000 -
b1111101011110000 x"
b111100000000000 !
b111100000000000 1
b1111000 7
b101 9
b101 *"
b101 ,"
b1111110101111000 /
b1111110101111000 s"
b1111110101111000 u"
b1111110101111000 v"
1%
#50000
0%
#55000
1O#
13#
0L#
b11111110 >
14#
0I#
1`
1:#
15#
1L
b11111110 <
b11111110 ;
b11111110 E
b1110 I
0]
1;#
b111111000 +
b11111000 *
b11111000 .#
b1000 2#
0F#
1Z
1<#
b1111111011100000 r"
1[
1D#
b1111111011100000 .
b11100000 A
b1011 G
b1011 0#
b11100000 @
b11111011 ?
b11111011 C
b11111011 ,#
b1111101111100000 -
b1111101111100000 x"
b1111000000000000 !
b1111000000000000 1
b11110000 7
b11 8
b11 )"
b1111110111110000 /
b1111110111110000 s"
b1111110111110000 u"
b1111110111110000 v"
b100 9
b100 *"
b100 ,"
1%
#60000
0%
#65000
10
0("
1j
0""
0%"
1=
1l
1k
b0 i
0}
1F
1X
0f
b0 >
04#
1Q
1J
0:#
b1 :
0`
1N
b100000000 <
b0 ;
b0 E
b0 I
0c
0;#
1I#
b111111010 +
b11111010 *
b11111010 .#
b1010 2#
0L#
0W
1O
09#
1?#
07"
1H"
b100000001 5
b1 3
b1 0"
b1 4"
0K"
b11000001 r"
0^
1a
0G#
1J#
0E"
1B"
b11000001 .
b11000001 A
b1101 G
b1101 0#
0F"
1I"
b11000000 @
b11111101 ?
b11111101 C
b11111101 ,#
b1110 2"
b10 8
b10 )"
b1111110111000000 -
b1111110111000000 x"
b1110000000000001 !
b1110000000000001 1
b11100000 7
b11111110 6
b11111110 ."
b11 9
b11 *"
b11 ,"
b1111111011100000 /
b1111111011100000 s"
b1111111011100000 u"
b1111111011100000 v"
1%
#70000
0%
#75000
0S#
0,
0U#
0T#
0F
0=
0/#
0a#
00
0X
0k
0A#
01"
04
0J
0Q
0l
0j
0q
0>#
0b#
0^#
0C"
0V"
1c
0N
b100 I
0f
0}
0r
0""
0%"
0n
b100 <
b100 ;
b100 E
b0 i
0("
03#
1L#
b1110 2#
1O#
1f#
1i#
1l#
b11111110 +
b11111110 *
b11111110 .#
b1111 R#
1o#
06"
05"
0<"
0W"
0U"
0\"
b11111110 >
0O
0M
0s
0p
0o
0m
0?#
0=#
0c#
0`#
0_#
0]#
0D"
1K"
0N"
09"
b11 4"
0Q"
0h"
0]"
0k"
0n"
0Y"
b11 5
b11 3
b11 0"
b0 T"
0q"
b1111111010000010 r"
0a
0d
0{
0~
0#"
0&"
0J#
0M#
0d#
0g#
0j#
0m#
b0 :
0B"
0:"
08"
0^"
0["
0Z"
0X"
b1111111010000010 .
b10000010 A
b1 G
b0 g
b1 0#
b0 P#
0I"
0L"
0O"
0f"
0i"
0l"
0o"
b10000010 @
b1 ?
b1 C
b1 ,#
b0 2"
b0 R"
b110000010 -
b110000010 x"
b1100000100000000 !
b1100000100000000 1
b11000001 7
b0 6
b0 ."
b1 8
b1 )"
b11000001 /
b11000001 s"
b11000001 u"
b11000001 v"
b10 9
b10 *"
b10 ,"
1%
#80000
0%
#85000
1j
1U"
1=
1l
1k
14
1W"
1V"
1F
10
1X
1/#
1,
15"
11"
1J
1Q
1q
1A#
1T#
1a#
1C"
0c
1N
b0 I
0f
0}
1r
0""
0%"
1n
b100000000 <
b0 ;
b0 E
b0 i
0("
13#
0L#
1>#
b1010 2#
1O#
1U#
1f#
1b#
1i#
1S#
1l#
1^#
b111111010 +
b11111010 *
b11111010 .#
b1111 R#
1o#
16"
1<"
1\"
b0 >
1O
1M
1s
1p
1o
1m
1?#
1=#
1c#
1`#
1_#
1]#
1D"
0K"
0N"
19"
b1 4"
0Q"
0h"
1]"
0k"
0n"
1Y"
b100000001 5
b1 3
b1 0"
b0 T"
0q"
b101 r"
1a
1d
1{
1~
1#"
1&"
1J#
1M#
1d#
1g#
1j#
1m#
1B"
1:"
18"
1^"
1["
1Z"
1X"
b101 .
b101 A
b1101 G
b1111 g
b1101 0#
b1111 P#
1I"
1L"
1O"
1f"
1i"
1l"
1o"
b100 @
b11111101 ?
b11111101 C
b11111101 ,#
b1 :
b1110 2"
b1111 R"
b0 8
b0 )"
b1111110100000100 -
b1111110100000100 x"
b1000001000000001 !
b1000001000000001 1
b10000010 7
b11111110 6
b11111110 ."
b1 9
b1 *"
b1 ,"
b1111111010000010 /
b1111111010000010 s"
b1111111010000010 u"
b1111111010000010 v"
1%
#90000
0%
#95000
0S#
0,
0U#
0T#
0F
0=
0/#
0a#
00
0K
0X
0k
0I#
0A#
01"
04
0Y
1`
0J
0Q
0l
0j
0q
05#
0>#
0b#
0^#
0C"
0V"
0L
1]
0c
0N
b11 I
0f
0}
0r
0""
0%"
0n
b11 <
b11 ;
b11 E
b0 i
0("
1F#
03#
1L#
b1101 2#
1O#
1f#
1i#
1l#
b11111101 +
b11111101 *
b11111101 .#
b1111 R#
1o#
06"
05"
0<"
0W"
0U"
0\"
b11111101 >
0Z
0O
0M
0s
0p
0o
0m
0<#
0?#
0=#
0c#
0`#
0_#
0]#
0D"
1K"
0N"
09"
b11 4"
0Q"
0h"
0]"
0k"
0n"
0Y"
b11 5
b11 3
b11 0"
b0 T"
0q"
b1111110100001010 r"
0[
0a
0d
0{
0~
0#"
0&"
0D#
0J#
0M#
0d#
0g#
0j#
0m#
b0 :
0B"
0:"
08"
0^"
0["
0Z"
0X"
b1111110100001010 .
b1010 A
b0 G
b0 g
b0 0#
b0 P#
0I"
0L"
0O"
0f"
0i"
0l"
0o"
b1010 @
b0 ?
b0 C
b0 ,#
b0 2"
b0 R"
b1010 -
b1010 x"
b10100000000 !
b10100000000 1
b101 7
b0 6
b0 ."
b1111 8
b1111 )"
b101 /
b101 s"
b101 u"
b101 v"
1"
b0 9
b0 *"
b0 ,"
1%
#100000
b1111110100000000 r"
b1111110100000000 .
b0 A
b0 @
b0 -
b0 x"
b0 !
b0 1
b0 7
b0 /
b0 s"
b0 u"
b0 v"
0&
b1001 q#
b1100100 p#
0%
#105000
1%
#110000
0%
1&
